{
  "name": "Compass 1",
  "image": "portada.jpg",
  "temas": [
    {
      "tema": "First Partial",
      "subtemas": [
        {
          "tema": "Legal",
          "url": "legal.html"
        },
        {
          "tema": "Introduction",
          "url": "introduccion.html"
        },
        {
          "tema": "Table of contents",
          "url": "table_contents.html"
        },
        {
          "tema": "Table of contents 2",
          "url": "table_contents_2.html"
        },
        {
          "tema": "Key learning points",
          "url": "key_learning_points.html"
        },
        {
          "tema": "Purpose of the module",
          "url": "purpose_of_the_module.html"
        },
        {
          "tema": "Diagnostic evaluation",
          "url": "diagnostic_evaluation.html"
        },
        {
          "tema": "Unit 1",
          "url": "index.html"
        },
        {
          "tema": "Dosage of the program",
          "url": "dosage_of_the_program.html"
        }
      ]
    },
    {
      "tema": "Exchange personal information in basic conversations using vocabulary and specific structures",
      "subtemas": [
        {
          "tema": "Initial interaction",
          "url": "tema1.0.0.html"
        },
        {
          "tema": "Spelling words and colors",
          "url": "tema1.0.1.html"
        },
        {
          "tema": "Personal information",
          "url": "tema1.0.2.html"
        },
        {
          "tema": "Numbers and dates ",
          "url": "tema1.0.3.html"
        },
        {
          "tema": "Evaluation activity",
          "url": "tema1.0.4.html"
        }
      ]
    },
    {
      "tema": "Write basic texts that include information about occupations and daily routines",
      "subtemas": [
        {
          "tema": "Requesting and giving personal information",
          "url": "tema1.2.0.html"
        },
        {
          "tema": "Language study",
          "url": "tema1.2.1.html"
        },
        {
          "tema": "Countries and nationalities",
          "url": "tema1.2.2.html"
        },
        {
          "tema": "Descriptions",
          "url": "tema1.2.3.html"
        },
        {
          "tema": "Evaluation activity",
          "url": "tema1.2.4.html"
        },
        {
          "tema": "Learning evidence",
          "url": "tema1.2.5.html"
        },
        {
          "tema": "Reading comprehension",
          "url": "tema1.2.6.html"
        },
        {
          "tema": "Social emotional skills",
          "url": "tema1.2.7.html"
        },
        {
          "tema": "Self - evaluation",
          "url": "tema1.2.8.html"
        }
      ]
    }
  ]
}